%YAML 1.1
%TAG !u! tag:unity3d.com,2011:
--- !u!114 &11400000
MonoBehaviour:
  m_ObjectHideFlags: 0
  m_CorrespondingSourceObject: {fileID: 0}
  m_PrefabInstance: {fileID: 0}
  m_PrefabAsset: {fileID: 0}
  m_GameObject: {fileID: 0}
  m_Enabled: 1
  m_EditorHideFlags: 0
  m_Script: {fileID: 11500000, guid: 2b3ffebca1fc79041bdc655af4ce269a, type: 3}
  m_Name: MeleeWeapon
  m_EditorClassIdentifier: 
  WeaponName: Weapon Name
  WeaponDamage: 1
  WeaponRange: 1
  FireRate: 1
  Projectile: {fileID: 0}
  ProjectileSpeed: 1
